{
  "code": 0,
  "data": {
    "code": "SUCCESS",
    "extraMap": {
      "MtopCostMillis": 50
    },
    "model": {
      "costMillis": 50,
      "extraMap": {
        "WorldsearchIP": "33.102.181.148",
        "WorldsearchName": "worldsearch033102181148.center.na620",
        "EndpointHost": "33.54.222.247",
        "sp_status": "OK",
        "Endpoint": "taobao_item",
        "afterSearchCostMillis": 0
      },
      "itemList": [
        {
          "cityEn": "",
          "commentCount": "",
          "discntPriceYuan": 849.0,
          "discntRate": 8498,
          "discntType": "超级立减活动价",
          "extraMap": {},
          "fahuoDsr": "494",
          "frontStock": 3488,
          "fuwuDsr": "494",
          "hasTongkuan": false,
          "hasXiangsi": false,
          "itemGradeAvg": 0.0,
          "itemId": 742303377338,
          "itemLoc": "广东 东莞",
          "itemName": "倍轻松N6mini肩颈按摩仪揉捏护颈椎按摩器颈背部加热",
          "itemNameEn": "",
          "itemSubName": "按摩热敷 升级梅花滚轮按摩头",
          "itemSubNameEn": "",
          "itemType": "b",
          "miaoshuDsr": "492",
          "options": 17750295040,
          "orderPayUV": "1000+",
          "picUrl": "i1/1740894788/O1CN01kuV3qF1lExW5mQTjn_!!4611686018427384388-0-item_pic.jpg",
          "picUrlFull": "https://g.search.alicdn.com/img/bao/uploaded/i4/i1/1740894788/O1CN01kuV3qF1lExW5mQTjn_!!4611686018427384388-0-item_pic.jpg",
          "picUrlList": [
            "i4/1740894788/O1CN018shbH51lExSIudNut_!!1740894788.png",
            "i4/1740894788/O1CN01uk6EtT1lExMD3qQ8a_!!1740894788.jpg",
            "i2/1740894788/O1CN01REwHAP1lExSKGCFG3_!!1740894788.jpg",
            "i4/1740894788/O1CN01N8Pz5e1lExMD3nCXW_!!1740894788.jpg"
          ],
          "priceFen": 99900,
          "priceYuanDouble": 999.0,
          "priceZKFen": 84900,
          "priceZKYuanDouble": 849.0,
          "prodId": 986068219,
          "provEn": "",
          "sellerGoodrat": 10000,
          "sellerLevel": 15,
          "sellerLoc": " 深圳市",
          "serviceList": [],
          "shopId": 1740894788,
          "shopName": "breo倍轻松旗舰店",
          "spuId": 8293031346,
          "tagList": [],
          "tmcTagList": [
            "47887",
            "49117",
            "49116",
            "100047887",
            "100048300",
            "100049116",
            "100049117",
            "100048297",
            "100049113",
            "100048299",
            "48299",
            "48300",
            "49113",
            "48297"
          ],
          "userTag": 18020085046181888,
          "userType": 1,
          "vidname": ""
        },
        {
          "cityEn": "",
          "commentCount": "",
          "discntPriceYuan": 1079.0,
          "discntRate": 10000,
          "discntType": "0",
          "extraMap": {},
          "fahuoDsr": "494",
          "frontStock": 850,
          "fuwuDsr": "494",
          "hasTongkuan": false,
          "hasXiangsi": false,
          "itemGradeAvg": 0.0,
          "itemId": 985060391714,
          "itemLoc": "广东 东莞",
          "itemName": "倍轻松N6mini肩颈按摩仪揉捏颈椎按摩器礼物送礼红光热敷",
          "itemNameEn": "",
          "itemSubName": "",
          "itemSubNameEn": "",
          "itemType": "b",
          "miaoshuDsr": "492",
          "options": 17750294528,
          "orderPayUV": "1000+",
          "picUrl": "i3/1740894788/O1CN01hIHUpX1lExW60QWyO_!!4611686018427384388-0-item_pic.jpg",
          "picUrlFull": "https://g.search1.alicdn.com/img/bao/uploaded/i4/i3/1740894788/O1CN01hIHUpX1lExW60QWyO_!!4611686018427384388-0-item_pic.jpg",
          "picUrlList": [
            "i2/1740894788/O1CN01nzUWwB1lExVMtrWxE_!!1740894788.jpg",
            "i2/1740894788/O1CN01ioY0f41lExVMpXpfH_!!1740894788.jpg",
            "i1/1740894788/O1CN01QD0CLJ1lExVMkXSYX_!!1740894788.jpg",
            "i1/1740894788/O1CN01DlBnmT1lExVN5tN8W_!!1740894788.jpg"
          ],
          "priceFen": 107900,
          "priceYuanDouble": 1079.0,
          "priceZKFen": 107900,
          "priceZKYuanDouble": 1079.0,
          "prodId": 986068219,
          "provEn": "",
          "sellerGoodrat": 10000,
          "sellerLevel": 15,
          "sellerLoc": " 深圳市",
          "serviceList": [],
          "shopId": 1740894788,
          "shopName": "breo倍轻松旗舰店",
          "spuId": 8293031346,
          "tagList": [],
          "tmcTagList": [
            "100048297",
            "47887",
            "100048299",
            "100049113",
            "48299",
            "49113",
            "100047887",
            "48297"
          ],
          "userTag": 18020085046181888,
          "userType": 1,
          "vidname": ""
        },
        {
          "cityEn": "",
          "commentCount": "",
          "discntPriceYuan": 1039.0,
          "discntRate": 7426,
          "discntType": "超级立减活动价",
          "extraMap": {},
          "fahuoDsr": "494",
          "frontStock": 581,
          "fuwuDsr": "494",
          "hasTongkuan": false,
          "hasXiangsi": false,
          "itemGradeAvg": 0.0,
          "itemId": 915018477108,
          "itemLoc": "广东 中山",
          "itemName": "倍轻松N6mini2代肩颈按摩仪肩周热灸热敷礼物送礼",
          "itemNameEn": "",
          "itemSubName": "新品上市 倍轻松N6mini2代 肩周热灸按摩仪",
          "itemSubNameEn": "",
          "itemType": "b",
          "miaoshuDsr": "492",
          "options": 17750294528,
          "orderPayUV": "1000+",
          "picUrl": "i2/1740894788/O1CN01yn8PaB1lExW6CYDIM_!!4611686018427384388-0-item_pic.jpg",
          "picUrlFull": "https://g.search2.alicdn.com/img/bao/uploaded/i4/i2/1740894788/O1CN01yn8PaB1lExW6CYDIM_!!4611686018427384388-0-item_pic.jpg",
          "picUrlList": [
            "i1/1740894788/O1CN01KNFbt21lExQGVMW8U_!!1740894788.jpg",
            "i4/1740894788/O1CN01vxa7KS1lExPjnDsxi_!!1740894788.jpg",
            "i3/1740894788/O1CN01NuBdS51lExPjnBfmM_!!1740894788.jpg",
            "i4/1740894788/O1CN01xYJlsF1lExPktprq9_!!1740894788.jpg"
          ],
          "priceFen": 139900,
          "priceYuanDouble": 1399.0,
          "priceZKFen": 103900,
          "priceZKYuanDouble": 1039.0,
          "prodId": 986068219,
          "provEn": "",
          "sellerGoodrat": 10000,
          "sellerLevel": 15,
          "sellerLoc": " 深圳市",
          "serviceList": [],
          "shopId": 1740894788,
          "shopName": "breo倍轻松旗舰店",
          "spuId": 8329360704,
          "tagList": [],
          "tmcTagList": [
            "47887",
            "49117",
            "49116",
            "100047887",
            "100048300",
            "100049116",
            "100049117",
            "100048297",
            "100049113",
            "100048299",
            "48299",
            "48300",
            "49113",
            "48297"
          ],
          "userTag": 18020085046181888,
          "userType": 1,
          "vidname": ""
        },
        {
          "cityEn": "",
          "commentCount": "",
          "discntPriceYuan": 298.0,
          "discntRate": 4974,
          "discntType": "超市推荐",
          "extraMap": {},
          "fahuoDsr": "491",
          "frontStock": 503,
          "fuwuDsr": "491",
          "hasTongkuan": false,
          "hasXiangsi": false,
          "itemGradeAvg": 0.0,
          "itemId": 794516294834,
          "itemLoc": "上海",
          "itemName": "父亲节礼物送礼推荐倍轻松N6mini肩颈按摩仪揉捏热敷斜方肌颈椎",
          "itemNameEn": "",
          "itemSubName": "按摩热灸 | 耐磨耐脏 | 肌肉放松",
          "itemSubNameEn": "",
          "itemType": "b",
          "miaoshuDsr": "488",
          "options": 18295891236487680,
          "orderPayUV": "少于100",
          "picUrl": "i2/6000000001569/O1CN01rj4UDO1NSeZCNN6yK_!!6000000001569-0-sm.jpg",
          "picUrlFull": "https://g.search3.alicdn.com/img/bao/uploaded/i4/i2/6000000001569/O1CN01rj4UDO1NSeZCNN6yK_!!6000000001569-0-sm.jpg",
          "picUrlList": [
            "i2/6000000005382/O1CN011FhcEO1pd0ibyI0Z2_!!6000000005382-2-at.png",
            "i4/6000000005302/O1CN01jOV0aY1p2N27p5JFh_!!6000000005302-0-at.jpg",
            "i3/6000000006742/O1CN013EbgiK1zftMuG5vS8_!!6000000006742-0-at.jpg",
            "i2/6000000000344/O1CN01yy3QWY1EPbL7Kg5cc_!!6000000000344-0-at.jpg"
          ],
          "priceFen": 59900,
          "priceYuanDouble": 599.0,
          "priceZKFen": 29800,
          "priceZKYuanDouble": 298.0,
          "prodId": 986068219,
          "provEn": "",
          "sellerGoodrat": 10000,
          "sellerLevel": 20,
          "sellerLoc": "上海 上海",
          "serviceList": [],
          "shopId": 725677994,
          "shopName": "天猫超市",
          "spuId": 6973842591,
          "tagList": [],
          "tmcTagList": [
            "47887",
            "49117",
            "49116",
            "100047887",
            "100048300",
            "100049116",
            "100049117",
            "100048297",
            "100049113",
            "100048299",
            "48299",
            "48300",
            "49113",
            "48297"
          ],
          "userTag": 1170937140066910216,
          "userType": 1,
          "vidname": ""
        },
        {
          "cityEn": "",
          "commentCount": "",
          "discntPriceYuan": 39.9,
          "discntRate": 10000,
          "discntType": "超级立减活动价",
          "extraMap": {},
          "fahuoDsr": "494",
          "frontStock": 100,
          "fuwuDsr": "494",
          "hasTongkuan": false,
          "hasXiangsi": false,
          "itemGradeAvg": 0.0,
          "itemId": 934096455737,
          "itemLoc": "广东 深圳",
          "itemName": "【两件7.5折】倍轻松N6mini2代草本艾绒贴耗材",
          "itemNameEn": "",
          "itemSubName": "新品上市 倍轻松N6mini2代 肩周热灸按摩仪",
          "itemSubNameEn": "",
          "itemType": "b",
          "miaoshuDsr": "492",
          "options": 17750294528,
          "orderPayUV": "少于100",
          "picUrl": "i3/1740894788/O1CN012IDE8x1lExW6CObv4_!!4611686018427384388-0-item_pic.jpg",
          "picUrlFull": "https://g.search.alicdn.com/img/bao/uploaded/i4/i3/1740894788/O1CN012IDE8x1lExW6CObv4_!!4611686018427384388-0-item_pic.jpg",
          "picUrlList": [
            "i3/1740894788/O1CN01CPRstS1lExQ2FkFuZ_!!1740894788.jpg",
            "i4/1740894788/O1CN01EoeJ4J1lExQPhbpiX_!!4611686018427384388-0-item_pic.jpg"
          ],
          "priceFen": 3990,
          "priceYuanDouble": 39.9,
          "priceZKFen": 3990,
          "priceZKYuanDouble": 39.9,
          "provEn": "",
          "sellerGoodrat": 10000,
          "sellerLevel": 15,
          "sellerLoc": " 深圳市",
          "serviceList": [],
          "shopId": 1740894788,
          "shopName": "breo倍轻松旗舰店",
          "spuId": 8329360704,
          "tagList": [],
          "tmcTagList": [
            "47887",
            "49117",
            "49116",
            "100047887",
            "100048300",
            "100049116",
            "100049117",
            "100048297",
            "100049113",
            "100048299",
            "48299",
            "48300",
            "49113",
            "48297"
          ],
          "userTag": 18020085046181888,
          "userType": 1,
          "vidname": ""
        },
        {
          "cityEn": "",
          "commentCount": "",
          "discntPriceYuan": 555.0,
          "discntRate": 6173,
          "discntType": "新品促销",
          "extraMap": {},
          "fahuoDsr": "492",
          "frontStock": 3183,
          "fuwuDsr": "490",
          "hasTongkuan": false,
          "hasXiangsi": false,
          "itemGradeAvg": 0.0,
          "itemId": 838255592978,
          "itemLoc": "北京",
          "itemName": "倍轻松N6mini2代肩颈按摩仪一字开肩金推手颈椎按摩斜方肌按摩器",
          "itemNameEn": "",
          "itemSubName": "",
          "itemSubNameEn": "",
          "itemType": "b",
          "miaoshuDsr": "488",
          "options": 536870912,
          "orderPayUV": "少于100",
          "picUrl": "i3/90477152/O1CN01XoRRmw22hfekMh6jg_!!90477152.png",
          "picUrlFull": "https://g.search1.alicdn.com/img/bao/uploaded/i4/i3/90477152/O1CN01XoRRmw22hfekMh6jg_!!90477152.png",
          "picUrlList": [
            "i1/90477152/O1CN01rJkCMV22hfelqac0R_!!90477152.jpg",
            "i1/90477152/O1CN01vSIUuY22hfekL7YVq_!!90477152.jpg",
            "i1/90477152/O1CN01ELYrTQ22hfejGOueT_!!90477152.jpg",
            "i3/90477152/O1CN01E94jUX22hfekMEAl0_!!90477152.jpg"
          ],
          "priceFen": 89900,
          "priceYuanDouble": 899.0,
          "priceZKFen": 55500,
          "priceZKYuanDouble": 555.0,
          "prodId": 986068219,
          "provEn": "",
          "sellerGoodrat": 9962,
          "sellerLevel": 17,
          "sellerLoc": "北京 北京",
          "serviceList": [],
          "shopId": 90477152,
          "shopName": "ThanksNature生活美学",
          "spuId": 0,
          "tagList": [],
          "tmcTagList": [
            "100049121",
            "100049122",
            "100049120",
            "49122",
            "49121",
            "49120"
          ],
          "userTag": 1170940490216898564,
          "userType": 0,
          "vidname": ""
        },
        {
          "cityEn": "",
          "commentCount": "",
          "discntPriceYuan": 455.0,
          "discntRate": 4554,
          "discntType": "优惠促销",
          "extraMap": {},
          "fahuoDsr": "494",
          "frontStock": 340,
          "fuwuDsr": "496",
          "hasTongkuan": false,
          "hasXiangsi": false,
          "itemGradeAvg": 0.0,
          "itemId": 841023434712,
          "itemLoc": "江苏 徐州",
          "itemName": "倍轻松N6mini肩颈按摩仪金推手颈椎斜方肌按摩器APP智能充电揉捏",
          "itemNameEn": "",
          "itemSubName": "",
          "itemSubNameEn": "",
          "itemType": "b",
          "miaoshuDsr": "492",
          "options": 17716740096,
          "orderPayUV": "少于100",
          "picUrl": "i3/720869370/O1CN01EDzzre2J5W8MGnsaL_!!720869370.jpg",
          "picUrlFull": "https://g.search2.alicdn.com/img/bao/uploaded/i4/i3/720869370/O1CN01EDzzre2J5W8MGnsaL_!!720869370.jpg",
          "picUrlList": [
            "i3/720869370/O1CN01rMPVLg2J5W8BwKi0Z_!!720869370.jpg",
            "i4/720869370/O1CN01elP8le2J5W8HNGvOl_!!720869370.jpg",
            "i1/720869370/O1CN01HLfXcU2J5W8IYvHTh_!!720869370.jpg",
            "i4/720869370/O1CN01YVrY212J5W8H5FT8C_!!720869370.jpg"
          ],
          "priceFen": 99900,
          "priceYuanDouble": 999.0,
          "priceZKFen": 45500,
          "priceZKYuanDouble": 455.0,
          "prodId": 721064875,
          "provEn": "",
          "sellerGoodrat": 9983,
          "sellerLevel": 12,
          "sellerLoc": "",
          "serviceList": [],
          "shopId": 720869370,
          "shopName": "3C数码电器商城",
          "spuId": 0,
          "tagList": [],
          "tmcTagList": [
            "47888",
            "48302",
            "48104",
            "48301",
            "100047888",
            "100048301",
            "100048302",
            "100048104",
            "100049121",
            "100048296",
            "100049122",
            "49122",
            "49121",
            "48296"
          ],
          "userTag": 1170940490149797892,
          "userType": 0,
          "vidname": ""
        },
        {
          "cityEn": "",
          "commentCount": "",
          "discntPriceYuan": 458.0,
          "discntRate": 10000,
          "discntType": "",
          "extraMap": {},
          "fahuoDsr": "495",
          "frontStock": 500,
          "fuwuDsr": "493",
          "hasTongkuan": false,
          "hasXiangsi": false,
          "itemGradeAvg": 0.0,
          "itemId": 1056206793629,
          "itemLoc": "上海",
          "itemName": "倍轻松N6mini肩颈按摩仪揉捏护颈椎部加热颈部肩背按摩器仿人手",
          "itemNameEn": "",
          "itemSubName": "",
          "itemSubNameEn": "",
          "itemType": "b",
          "miaoshuDsr": "491",
          "options": 17716740096,
          "orderPayUV": "少于100",
          "picUrl": "i4/3367284420/O1CN01G0RpMS1iWPknYe1Sk_!!3367284420.png",
          "picUrlFull": "https://g.search3.alicdn.com/img/bao/uploaded/i4/i4/3367284420/O1CN01G0RpMS1iWPknYe1Sk_!!3367284420.png",
          "picUrlList": [
            "i2/3367284420/O1CN01m1gTR81iWPksKYEST_!!3367284420.png",
            "i3/3367284420/O1CN01gQNtgv1iWPksAYK72_!!3367284420.png",
            "i3/3367284420/O1CN01ETsNpm1iWPkryK50S_!!3367284420.png",
            "i3/3367284420/O1CN01Vx2FfL1iWPksgT7py_!!3367284420.png"
          ],
          "priceFen": 45800,
          "priceYuanDouble": 458.0,
          "priceZKFen": 45800,
          "priceZKYuanDouble": 458.0,
          "prodId": 986068219,
          "provEn": "",
          "sellerGoodrat": 9965,
          "sellerLevel": 13,
          "sellerLoc": "",
          "serviceList": [],
          "shopId": 3367284420,
          "shopName": "全球精品电器商城",
          "spuId": 0,
          "tagList": [],
          "tmcTagList": ["100049120", "49120"],
          "userTag": 1170936040555282436,
          "userType": 0,
          "vidname": ""
        },
        {
          "cityEn": "",
          "commentCount": "",
          "discntPriceYuan": 778.0,
          "discntRate": 10000,
          "discntType": "0",
          "extraMap": {},
          "fahuoDsr": "495",
          "frontStock": 400,
          "fuwuDsr": "493",
          "hasTongkuan": false,
          "hasXiangsi": false,
          "itemGradeAvg": 0.0,
          "itemId": 1063058847822,
          "itemLoc": "浙江 杭州",
          "itemName": "倍轻松N6mini肩颈按摩仪揉捏护颈椎按摩器颈背部加热",
          "itemNameEn": "",
          "itemSubName": "",
          "itemSubNameEn": "",
          "itemType": "b",
          "miaoshuDsr": "492",
          "options": 536870912,
          "orderPayUV": "少于100",
          "picUrl": "i3/3581946553/O1CN01fhmMlP1yHKZS5fmz4_!!3581946553.jpg",
          "picUrlFull": "https://g.search.alicdn.com/img/bao/uploaded/i4/i3/3581946553/O1CN01fhmMlP1yHKZS5fmz4_!!3581946553.jpg",
          "picUrlList": [
            "i3/3581946553/O1CN0131bqZ21yHKZRzrQCz_!!3581946553.png",
            "i2/3581946553/O1CN01AoqFCj1yHKZSyeg2p_!!3581946553.jpg",
            "i2/3581946553/O1CN01Tgvl1s1yHKZMyn2Zn_!!3581946553.jpg",
            "i1/3581946553/O1CN0142kYc91yHKZRe8jD8_!!3581946553.jpg"
          ],
          "priceFen": 77800,
          "priceYuanDouble": 778.0,
          "priceZKFen": 77800,
          "priceZKYuanDouble": 778.0,
          "prodId": 986068219,
          "provEn": "",
          "sellerGoodrat": 9948,
          "sellerLevel": 14,
          "sellerLoc": "",
          "serviceList": [],
          "shopId": 3581946553,
          "shopName": "上海宜家生活馆",
          "spuId": 0,
          "tagList": [],
          "tmcTagList": ["100049121", "100049122", "49122", "49121"],
          "userTag": 1170936040555282436,
          "userType": 0,
          "vidname": ""
        },
        {
          "cityEn": "",
          "commentCount": "",
          "discntPriceYuan": 360.0,
          "discntRate": 10000,
          "discntType": "",
          "extraMap": {},
          "fahuoDsr": "498",
          "frontStock": 3549,
          "fuwuDsr": "499",
          "hasTongkuan": false,
          "hasXiangsi": false,
          "itemGradeAvg": 0.0,
          "itemId": 877824181132,
          "itemLoc": "广东 广州",
          "itemName": "倍轻松N6mini pro二2代肩颈按摩仪揉捏开肩金推手斜方肌按摩颈椎",
          "itemNameEn": "",
          "itemSubName": "",
          "itemSubNameEn": "",
          "itemType": "b",
          "miaoshuDsr": "498",
          "options": 17716740096,
          "orderPayUV": "少于100",
          "picUrl": "i4/2269763073/O1CN01GhNq4u1YZUFqcTYhK_!!2269763073.png",
          "picUrlFull": "https://g.search1.alicdn.com/img/bao/uploaded/i4/i4/2269763073/O1CN01GhNq4u1YZUFqcTYhK_!!2269763073.png",
          "picUrlList": [
            "i2/2269763073/O1CN01Fraarx1YZU8eNduAB_!!2269763073.png",
            "i2/2269763073/O1CN01Th0kV51YZU8ftN0mJ_!!2269763073.jpg",
            "i2/2269763073/O1CN016N9Vb91YZUFqp7P4S_!!2269763073.jpg",
            "i1/2269763073/O1CN01VLx07V1YZUFqXbGlq_!!2269763073.jpg"
          ],
          "priceFen": 36000,
          "priceYuanDouble": 360.0,
          "priceZKFen": 36000,
          "priceZKYuanDouble": 360.0,
          "prodId": 986068219,
          "provEn": "",
          "sellerGoodrat": 9982,
          "sellerLevel": 13,
          "sellerLoc": "",
          "serviceList": [],
          "shopId": 2269763073,
          "shopName": "蓝胖胖的时光机",
          "spuId": 0,
          "tagList": [],
          "tmcTagList": [],
          "userTag": 1170936040555282436,
          "userType": 0,
          "vidname": ""
        }
      ],
      "page": {
        "nextNo": 2,
        "pageNo": 1,
        "pageSize": 10,
        "prevNo": 1,
        "showBegin": 1,
        "showEnd": 3,
        "totalItems": 32,
        "totalPages": 4
      },
      "responseStatus": 0,
      "success": true,
      "traceList": []
    }
  },
  "message": null,
  "recordTime": "2026-07-21T14:41:52.311545461",
  "requestId": "bbe17729122d44d4bc155a6f2d9271bb"
}
